<svg fill="#8C183F" xmlns="http://www.w3.org/2000/svg" width="1440" height="900">
    <path fill-opacity="0.824" d="M1273,906L1507,907L1527,679Z"/>
    <path fill-opacity="0.824" d="M1770,905L1782,1135L1778,440Z"/>
    <path fill-opacity="0.698" d="M1052,1167L1265,1129L1068,886Z"/>
    <path fill-opacity="0.690" d="M1273,906L1527,679L1266,664Z"/>
    <path fill-opacity="0.639" d="M856,1135L1052,1167L1068,886Z"/>
    <path fill-opacity="0.580" d="M632,1170L1052,1167L856,1135Z"/>
    <path fill-opacity="0.573" d="M1527,679L1532,446L1307,421Z"/>
    <path fill-opacity="0.573" d="M1778,440L1532,446L1752,656Z"/>
    <path fill-opacity="1.000" d="M1518,1164L1782,1135L1507,907Z"/>
    <path fill-opacity="1.000" d="M1782,1135L1770,905L1507,907Z"/>
    <path fill-opacity="0.514" d="M1071,665L1266,664L1045,476Z"/>
    <path fill-opacity="0.506" d="M635,890L804,891L810,685Z"/>
    <path fill-opacity="0.451" d="M584,680L635,890L810,685Z"/>
    <path fill-opacity="0.451" d="M342,1136L635,890L357,898Z"/>
    <path fill-opacity="0.439" d="M357,898L635,890L584,680Z"/>
    <path fill-opacity="0.396" d="M1307,421L1327,225L1087,203Z"/>
    <path fill-opacity="0.392" d="M1747,236L1735,-8L1549,235Z"/>
    <path fill-opacity="0.392" d="M1778,440L1781,-229L1747,236Z"/>
    <path fill-opacity="0.384" d="M584,680L810,685L613,447Z"/>
    <path fill-opacity="0.384" d="M124,1162L342,1136L171,893Z"/>
    <path fill-opacity="0.380" d="M342,666L357,898L584,680Z"/>
    <path fill-opacity="0.380" d="M1327,225L1549,235L1327,-19Z"/>
    <path fill-opacity="0.973" d="M1265,1129L1518,1164L1507,907Z"/>
    <path fill-opacity="0.478" d="M1307,421L1532,446L1327,225Z"/>
    <path fill-opacity="0.478" d="M632,1170L635,890L342,1136Z"/>
    <path fill-opacity="0.471" d="M810,685L1071,665L1045,476Z"/>
    <path fill-opacity="0.463" d="M1532,446L1747,236L1549,235Z"/>
    <path fill-opacity="0.463" d="M1532,446L1549,235L1327,225Z"/>
    <path fill-opacity="0.427" d="M342,1136L124,1162L632,1170Z"/>
    <path fill-opacity="0.408" d="M810,685L1045,476L813,417Z"/>
    <path fill-opacity="0.408" d="M1045,476L1307,421L1087,203Z"/>
    <path fill-opacity="0.408" d="M171,893L342,1136L357,898Z"/>
    <path fill-opacity="0.843" d="M1265,1129L1507,907L1273,906Z"/>
    <path fill-opacity="0.675" d="M1068,886L1273,906L1266,664Z"/>
    <path fill-opacity="0.671" d="M1752,656L1770,905L1778,440Z"/>
    <path fill-opacity="0.671" d="M632,1170L1518,1164L1052,1167Z"/>
    <path fill-opacity="0.537" d="M1778,440L1782,1135L1781,-229Z"/>
    <path fill-opacity="0.525" d="M632,1170L804,891L635,890Z"/>
    <path fill-opacity="0.498" d="M1266,664L1307,421L1045,476Z"/>
    <path fill-opacity="0.498" d="M1778,440L1747,236L1532,446Z"/>
    <path fill-opacity="0.788" d="M1052,1167L1518,1164L1265,1129Z"/>
    <path fill-opacity="0.741" d="M1265,1129L1273,906L1068,886Z"/>
    <path fill-opacity="0.733" d="M1770,905L1752,656L1527,679Z"/>
    <path fill-opacity="0.620" d="M1752,656L1532,446L1527,679Z"/>
    <path fill-opacity="0.604" d="M856,1135L1068,886L804,891Z"/>
    <path fill-opacity="0.592" d="M1068,886L1266,664L1071,665Z"/>
    <path fill-opacity="0.588" d="M1527,679L1307,421L1266,664Z"/>
    <path fill-opacity="0.553" d="M804,891L1068,886L810,685Z"/>
    <path fill-opacity="0.549" d="M632,1170L856,1135L804,891Z"/>
    <path fill-opacity="0.541" d="M810,685L1068,886L1071,665Z"/>
    <path fill-opacity="0.365" d="M613,447L810,685L813,417Z"/>
    <path fill-opacity="0.357" d="M1549,235L1735,-8L1545,-38Z"/>
    <path fill-opacity="0.353" d="M1549,235L1545,-38L1327,-19Z"/>
    <path fill-opacity="0.345" d="M-106,896L124,1162L171,893Z"/>
    <path fill-opacity="0.341" d="M813,417L1045,476L833,211Z"/>
    <path fill-opacity="0.337" d="M1045,476L1087,203L833,211Z"/>
    <path fill-opacity="0.337" d="M1327,225L1327,-19L1087,203Z"/>
    <path fill-opacity="0.373" d="M171,893L357,898L342,666Z"/>
    <path fill-opacity="0.329" d="M-106,896L-94,1145L124,1162Z"/>
    <path fill-opacity="0.329" d="M-339,921L-330,1113L-106,896Z"/>
    <path fill-opacity="0.329" d="M-330,1113L-94,1145L-106,896Z"/>
    <path fill-opacity="0.329" d="M1521,-214L1781,-229L1305,-274Z"/>
    <path fill-opacity="0.329" d="M1545,-38L1521,-214L1327,-19Z"/>
    <path fill-opacity="0.329" d="M1545,-38L1781,-229L1521,-214Z"/>
    <path fill-opacity="0.329" d="M1735,-8L1781,-229L1545,-38Z"/>
    <path fill-opacity="0.329" d="M1781,-229L1735,-8L1747,236Z"/>
    <path fill-opacity="0.322" d="M138,662L171,893L342,666Z"/>
    <path fill-opacity="0.318" d="M372,445L342,666L584,680Z"/>
    <path fill-opacity="0.318" d="M1521,-214L1305,-274L1327,-19Z"/>
    <path fill-opacity="0.302" d="M-75,685L-106,896L171,893Z"/>
    <path fill-opacity="0.298" d="M-320,650L-339,921L-106,896Z"/>
    <path fill-opacity="0.290" d="M138,662L-75,685L171,893Z"/>
    <path fill-opacity="0.282" d="M813,417L628,199L613,447Z"/>
    <path fill-opacity="0.282" d="M1087,203L1327,-19L1051,1Z"/>
    <path fill-opacity="0.278" d="M1327,-19L1305,-274L1081,-268Z"/>
    <path fill-opacity="0.271" d="M1087,203L1051,1L833,211Z"/>
    <path fill-opacity="0.271" d="M813,417L833,211L628,199Z"/>
    <path fill-opacity="0.267" d="M-320,650L-106,896L-75,685Z"/>
    <path fill-opacity="0.310" d="M372,445L584,680L613,447Z"/>
    <path fill-opacity="0.263" d="M146,462L138,662L342,666Z"/>
    <path fill-opacity="0.259" d="M1327,-19L1081,-268L1051,1Z"/>
    <path fill-opacity="0.251" d="M146,462L342,666L372,445Z"/>
    <path fill-opacity="0.231" d="M364,224L372,445L613,447Z"/>
    <path fill-opacity="0.231" d="M-75,685L138,662L146,462Z"/>
    <path fill-opacity="0.227" d="M833,211L1051,1L815,-8Z"/>
    <path fill-opacity="0.220" d="M364,224L613,447L628,199Z"/>
    <path fill-opacity="0.220" d="M1051,1L1081,-268L806,-231Z"/>
    <path fill-opacity="0.216" d="M833,211L815,-8L628,199Z"/>
    <path fill-opacity="0.212" d="M-115,441L-320,650L-75,685Z"/>
    <path fill-opacity="0.212" d="M-348,225L-339,921L-320,650Z"/>
    <path fill-opacity="0.196" d="M1051,1L806,-231L815,-8Z"/>
    <path fill-opacity="0.188" d="M-115,441L-75,685L146,462Z"/>
    <path fill-opacity="0.188" d="M1081,-268L1305,-274L138,-264Z"/>
    <path fill-opacity="0.180" d="M146,233L146,462L372,445Z"/>
    <path fill-opacity="0.173" d="M815,-8L574,8L628,199Z"/>
    <path fill-opacity="0.169" d="M364,224L146,233L372,445Z"/>
    <path fill-opacity="0.165" d="M574,8L364,224L628,199Z"/>
    <path fill-opacity="0.165" d="M806,-231L609,-233L815,-8Z"/>
    <path fill-opacity="0.157" d="M-348,225L-320,650L-318,464Z"/>
    <path fill-opacity="0.153" d="M1081,-268L389,-261L609,-233Z"/>
    <path fill-opacity="0.145" d="M815,-8L609,-233L574,8Z"/>
    <path fill-opacity="0.184" d="M-318,464L-320,650L-115,441Z"/>
    <path fill-opacity="0.184" d="M806,-231L1081,-268L609,-233Z"/>
    <path fill-opacity="0.129" d="M-89,229L-115,441L146,462Z"/>
    <path fill-opacity="0.129" d="M-348,225L-318,464L-115,441Z"/>
    <path fill-opacity="0.125" d="M574,8L381,13L364,224Z"/>
    <path fill-opacity="0.118" d="M1081,-268L138,-264L389,-261Z"/>
    <path fill-opacity="0.114" d="M609,-233L389,-261L574,8Z"/>
    <path fill-opacity="0.102" d="M-348,225L-115,441L-89,229Z"/>
    <path fill-opacity="0.098" d="M164,-9L146,233L364,224Z"/>
    <path fill-opacity="0.098" d="M389,-261L381,13L574,8Z"/>
    <path fill-opacity="0.090" d="M381,13L164,-9L364,224Z"/>
    <path fill-opacity="0.082" d="M1305,-274L-291,-269L138,-264Z"/>
    <path fill-opacity="0.122" d="M146,233L-89,229L146,462Z"/>
    <path fill-opacity="0.067" d="M164,-9L-89,229L146,233Z"/>
    <path fill-opacity="0.067" d="M389,-261L164,-9L381,13Z"/>
    <path fill-opacity="0.055" d="M-348,225L-89,229L-325,16Z"/>
    <path fill-opacity="0.047" d="M389,-261L138,-264L164,-9Z"/>
    <path fill-opacity="0.027" d="M-325,16L-89,229L-110,-14Z"/>
    <path fill-opacity="0.024" d="M-110,-14L-89,229L164,-9Z"/>
    <path fill-opacity="0.016" d="M138,-264L-66,-225L164,-9Z"/>
    <path fill-opacity="0.000" d="M-66,-225L-110,-14L164,-9Z"/>
    <path fill-opacity="0.000" d="M-66,-225L-291,-269L-110,-14Z"/>
    <path fill-opacity="0.000" d="M-291,-269L-325,16L-110,-14Z"/>
    <path fill-opacity="0.000" d="M138,-264L-291,-269L-66,-225Z"/>
</svg>
